H3 Geospatial Indexing System • h3o
…
h3o utilizes vctrs to create H3 class vectors so that they can work seemlessly within a tidyverse workflow.

h3o is intended to work with the sf package for geometric operations. H3 vectors can be created from POINT geometry columns (sfc objects).

library(h3o)

pnts |> 
  dplyr::mutate(h3 = h3_from_points(geometry, 5))
#> Simple feature collection with 100 features and 1 field
#> Geometry type: POINT
#> Dimension:     XY
#> Bounding box:  xmin: -4.640664 ymin: 40.12973 xmax: 9.89838 ymax: 49.99956
#> Geodetic CRS:  WGS 84
#> # A tibble: 100 × 2
#>                  geometry              h3
#>  *            <POINT [°]>            <H3>
#>  1  (-0.1748193 48.79705) 8518656bfffffff
#>  2   (0.8532506 46.80069) 85186893fffffff
#>  3     (6.62694 42.85004) 85396bb7fffffff
#>  4 (-0.03733749 48.06814) 8518610ffffffff
#>  5    (0.464929 45.62997) 85186b97fffffff
#>  6    (6.293697 42.92604) 8539694bfffffff
#>  7  (-0.6392504 42.96113) 85397593fffffff
#>  8    (2.020749 45.14571) 85396597fffffff
#>  9     (6.787495 41.8565) 85394d8bfffffff
#> 10   (-2.065804 49.31534) 85186293fffffff
#> # … with 90 more rows
…
